﻿{"frames": [

{
	"filename": "Symbol alphabet instance 10000",
	"frame": {"x":0,"y":0,"w":216,"h":217},
	"rotated": false,
	"trimmed": false,
	"spriteSourceSize": {"x":0,"y":0,"w":216,"h":217},
	"sourceSize": {"w":216,"h":217}
}
,{
	"filename": "Symbol alphabet instance 10001",
	"frame": {"x":216,"y":0,"w":216,"h":217},
	"rotated": false,
	"trimmed": false,
	"spriteSourceSize": {"x":0,"y":0,"w":216,"h":217},
	"sourceSize": {"w":216,"h":217}
}
,{
	"filename": "Symbol alphabet instance 10002",
	"frame": {"x":432,"y":0,"w":216,"h":217},
	"rotated": false,
	"trimmed": false,
	"spriteSourceSize": {"x":0,"y":0,"w":216,"h":217},
	"sourceSize": {"w":216,"h":217}
}
,{
	"filename": "Symbol alphabet instance 10003",
	"frame": {"x":648,"y":0,"w":216,"h":217},
	"rotated": false,
	"trimmed": false,
	"spriteSourceSize": {"x":0,"y":0,"w":216,"h":217},
	"sourceSize": {"w":216,"h":217}
}
,{
	"filename": "Symbol alphabet instance 10004",
	"frame": {"x":0,"y":217,"w":216,"h":217},
	"rotated": false,
	"trimmed": false,
	"spriteSourceSize": {"x":0,"y":0,"w":216,"h":217},
	"sourceSize": {"w":216,"h":217}
}
,{
	"filename": "Symbol alphabet instance 10005",
	"frame": {"x":216,"y":217,"w":216,"h":217},
	"rotated": false,
	"trimmed": false,
	"spriteSourceSize": {"x":0,"y":0,"w":216,"h":217},
	"sourceSize": {"w":216,"h":217}
}
,{
	"filename": "Symbol alphabet instance 10006",
	"frame": {"x":432,"y":217,"w":216,"h":217},
	"rotated": false,
	"trimmed": false,
	"spriteSourceSize": {"x":0,"y":0,"w":216,"h":217},
	"sourceSize": {"w":216,"h":217}
}
,{
	"filename": "Symbol alphabet instance 10007",
	"frame": {"x":648,"y":217,"w":216,"h":217},
	"rotated": false,
	"trimmed": false,
	"spriteSourceSize": {"x":0,"y":0,"w":216,"h":217},
	"sourceSize": {"w":216,"h":217}
}
,{
	"filename": "Symbol alphabet instance 10008",
	"frame": {"x":0,"y":434,"w":216,"h":217},
	"rotated": false,
	"trimmed": false,
	"spriteSourceSize": {"x":0,"y":0,"w":216,"h":217},
	"sourceSize": {"w":216,"h":217}
}
,{
	"filename": "Symbol alphabet instance 10009",
	"frame": {"x":216,"y":434,"w":216,"h":217},
	"rotated": false,
	"trimmed": false,
	"spriteSourceSize": {"x":0,"y":0,"w":216,"h":217},
	"sourceSize": {"w":216,"h":217}
}
,{
	"filename": "Symbol alphabet instance 10010",
	"frame": {"x":432,"y":434,"w":216,"h":217},
	"rotated": false,
	"trimmed": false,
	"spriteSourceSize": {"x":0,"y":0,"w":216,"h":217},
	"sourceSize": {"w":216,"h":217}
}
,{
	"filename": "Symbol alphabet instance 10011",
	"frame": {"x":648,"y":434,"w":216,"h":217},
	"rotated": false,
	"trimmed": false,
	"spriteSourceSize": {"x":0,"y":0,"w":216,"h":217},
	"sourceSize": {"w":216,"h":217}
}
,{
	"filename": "Symbol alphabet instance 10012",
	"frame": {"x":0,"y":651,"w":216,"h":217},
	"rotated": false,
	"trimmed": false,
	"spriteSourceSize": {"x":0,"y":0,"w":216,"h":217},
	"sourceSize": {"w":216,"h":217}
}
,{
	"filename": "Symbol alphabet instance 10013",
	"frame": {"x":216,"y":651,"w":216,"h":217},
	"rotated": false,
	"trimmed": false,
	"spriteSourceSize": {"x":0,"y":0,"w":216,"h":217},
	"sourceSize": {"w":216,"h":217}
}
,{
	"filename": "Symbol alphabet instance 10014",
	"frame": {"x":432,"y":651,"w":216,"h":217},
	"rotated": false,
	"trimmed": false,
	"spriteSourceSize": {"x":0,"y":0,"w":216,"h":217},
	"sourceSize": {"w":216,"h":217}
}
,{
	"filename": "Symbol alphabet instance 10015",
	"frame": {"x":648,"y":651,"w":216,"h":217},
	"rotated": false,
	"trimmed": false,
	"spriteSourceSize": {"x":0,"y":0,"w":216,"h":217},
	"sourceSize": {"w":216,"h":217}
}
,{
	"filename": "Symbol alphabet instance 10016",
	"frame": {"x":0,"y":868,"w":216,"h":217},
	"rotated": false,
	"trimmed": false,
	"spriteSourceSize": {"x":0,"y":0,"w":216,"h":217},
	"sourceSize": {"w":216,"h":217}
}
,{
	"filename": "Symbol alphabet instance 10017",
	"frame": {"x":216,"y":868,"w":216,"h":217},
	"rotated": false,
	"trimmed": false,
	"spriteSourceSize": {"x":0,"y":0,"w":216,"h":217},
	"sourceSize": {"w":216,"h":217}
}
,{
	"filename": "Symbol alphabet instance 10018",
	"frame": {"x":432,"y":868,"w":216,"h":217},
	"rotated": false,
	"trimmed": false,
	"spriteSourceSize": {"x":0,"y":0,"w":216,"h":217},
	"sourceSize": {"w":216,"h":217}
}
,{
	"filename": "Symbol alphabet instance 10019",
	"frame": {"x":648,"y":868,"w":216,"h":217},
	"rotated": false,
	"trimmed": false,
	"spriteSourceSize": {"x":0,"y":0,"w":216,"h":217},
	"sourceSize": {"w":216,"h":217}
}
,{
	"filename": "Symbol alphabet instance 10020",
	"frame": {"x":0,"y":1085,"w":216,"h":217},
	"rotated": false,
	"trimmed": false,
	"spriteSourceSize": {"x":0,"y":0,"w":216,"h":217},
	"sourceSize": {"w":216,"h":217}
}
,{
	"filename": "Symbol alphabet instance 10021",
	"frame": {"x":216,"y":1085,"w":216,"h":217},
	"rotated": false,
	"trimmed": false,
	"spriteSourceSize": {"x":0,"y":0,"w":216,"h":217},
	"sourceSize": {"w":216,"h":217}
}
,{
	"filename": "Symbol alphabet instance 10022",
	"frame": {"x":432,"y":1085,"w":216,"h":217},
	"rotated": false,
	"trimmed": false,
	"spriteSourceSize": {"x":0,"y":0,"w":216,"h":217},
	"sourceSize": {"w":216,"h":217}
}
,{
	"filename": "Symbol alphabet instance 10023",
	"frame": {"x":648,"y":1085,"w":216,"h":217},
	"rotated": false,
	"trimmed": false,
	"spriteSourceSize": {"x":0,"y":0,"w":216,"h":217},
	"sourceSize": {"w":216,"h":217}
}
,{
	"filename": "Symbol alphabet instance 10024",
	"frame": {"x":0,"y":1302,"w":216,"h":217},
	"rotated": false,
	"trimmed": false,
	"spriteSourceSize": {"x":0,"y":0,"w":216,"h":217},
	"sourceSize": {"w":216,"h":217}
}
,{
	"filename": "Symbol alphabet instance 10025",
	"frame": {"x":216,"y":1302,"w":216,"h":217},
	"rotated": false,
	"trimmed": false,
	"spriteSourceSize": {"x":0,"y":0,"w":216,"h":217},
	"sourceSize": {"w":216,"h":217}
}],
"meta": {
	"app": "Adobe Animate",
	"version": "18.0.1.115",
	"image": "choice.png",
	"format": "RGBA8888",
	"size": {"w":1024,"h":2048},
	"scale": "1"
}
}
