﻿{"frames": [

{
	"filename": "Symbol 1 instance 10000",
	"frame": {"x":0,"y":0,"w":281,"h":281},
	"rotated": false,
	"trimmed": false,
	"spriteSourceSize": {"x":0,"y":0,"w":281,"h":281},
	"sourceSize": {"w":281,"h":281}
}
,{
	"filename": "Symbol 1 instance 10001",
	"frame": {"x":281,"y":0,"w":281,"h":281},
	"rotated": false,
	"trimmed": false,
	"spriteSourceSize": {"x":0,"y":0,"w":281,"h":281},
	"sourceSize": {"w":281,"h":281}
}
,{
	"filename": "Symbol 1 instance 10002",
	"frame": {"x":562,"y":0,"w":281,"h":281},
	"rotated": false,
	"trimmed": false,
	"spriteSourceSize": {"x":0,"y":0,"w":281,"h":281},
	"sourceSize": {"w":281,"h":281}
}
,{
	"filename": "Symbol 1 instance 10003",
	"frame": {"x":843,"y":0,"w":281,"h":281},
	"rotated": false,
	"trimmed": false,
	"spriteSourceSize": {"x":0,"y":0,"w":281,"h":281},
	"sourceSize": {"w":281,"h":281}
}
,{
	"filename": "Symbol 1 instance 10004",
	"frame": {"x":1124,"y":0,"w":281,"h":281},
	"rotated": false,
	"trimmed": false,
	"spriteSourceSize": {"x":0,"y":0,"w":281,"h":281},
	"sourceSize": {"w":281,"h":281}
}
,{
	"filename": "Symbol 1 instance 10005",
	"frame": {"x":1405,"y":0,"w":281,"h":281},
	"rotated": false,
	"trimmed": false,
	"spriteSourceSize": {"x":0,"y":0,"w":281,"h":281},
	"sourceSize": {"w":281,"h":281}
}
,{
	"filename": "Symbol 1 instance 10006",
	"frame": {"x":1686,"y":0,"w":281,"h":281},
	"rotated": false,
	"trimmed": false,
	"spriteSourceSize": {"x":0,"y":0,"w":281,"h":281},
	"sourceSize": {"w":281,"h":281}
}
,{
	"filename": "Symbol 1 instance 10007",
	"frame": {"x":0,"y":281,"w":281,"h":281},
	"rotated": false,
	"trimmed": false,
	"spriteSourceSize": {"x":0,"y":0,"w":281,"h":281},
	"sourceSize": {"w":281,"h":281}
}
,{
	"filename": "Symbol 1 instance 10008",
	"frame": {"x":281,"y":281,"w":281,"h":281},
	"rotated": false,
	"trimmed": false,
	"spriteSourceSize": {"x":0,"y":0,"w":281,"h":281},
	"sourceSize": {"w":281,"h":281}
}
,{
	"filename": "Symbol 1 instance 10009",
	"frame": {"x":562,"y":281,"w":281,"h":281},
	"rotated": false,
	"trimmed": false,
	"spriteSourceSize": {"x":0,"y":0,"w":281,"h":281},
	"sourceSize": {"w":281,"h":281}
}
,{
	"filename": "Symbol 1 instance 10010",
	"frame": {"x":843,"y":281,"w":281,"h":281},
	"rotated": false,
	"trimmed": false,
	"spriteSourceSize": {"x":0,"y":0,"w":281,"h":281},
	"sourceSize": {"w":281,"h":281}
}
,{
	"filename": "Symbol 1 instance 10011",
	"frame": {"x":1124,"y":281,"w":281,"h":281},
	"rotated": false,
	"trimmed": false,
	"spriteSourceSize": {"x":0,"y":0,"w":281,"h":281},
	"sourceSize": {"w":281,"h":281}
}
,{
	"filename": "Symbol 1 instance 10012",
	"frame": {"x":1405,"y":281,"w":281,"h":281},
	"rotated": false,
	"trimmed": false,
	"spriteSourceSize": {"x":0,"y":0,"w":281,"h":281},
	"sourceSize": {"w":281,"h":281}
}
,{
	"filename": "Symbol 1 instance 10013",
	"frame": {"x":1686,"y":281,"w":281,"h":281},
	"rotated": false,
	"trimmed": false,
	"spriteSourceSize": {"x":0,"y":0,"w":281,"h":281},
	"sourceSize": {"w":281,"h":281}
}
,{
	"filename": "Symbol 1 instance 10014",
	"frame": {"x":0,"y":562,"w":281,"h":281},
	"rotated": false,
	"trimmed": false,
	"spriteSourceSize": {"x":0,"y":0,"w":281,"h":281},
	"sourceSize": {"w":281,"h":281}
}
,{
	"filename": "Symbol 1 instance 10015",
	"frame": {"x":281,"y":562,"w":281,"h":281},
	"rotated": false,
	"trimmed": false,
	"spriteSourceSize": {"x":0,"y":0,"w":281,"h":281},
	"sourceSize": {"w":281,"h":281}
}
,{
	"filename": "Symbol 1 instance 10016",
	"frame": {"x":562,"y":562,"w":281,"h":281},
	"rotated": false,
	"trimmed": false,
	"spriteSourceSize": {"x":0,"y":0,"w":281,"h":281},
	"sourceSize": {"w":281,"h":281}
}
,{
	"filename": "Symbol 1 instance 10017",
	"frame": {"x":843,"y":562,"w":281,"h":281},
	"rotated": false,
	"trimmed": false,
	"spriteSourceSize": {"x":0,"y":0,"w":281,"h":281},
	"sourceSize": {"w":281,"h":281}
}
,{
	"filename": "Symbol 1 instance 10018",
	"frame": {"x":1124,"y":562,"w":281,"h":281},
	"rotated": false,
	"trimmed": false,
	"spriteSourceSize": {"x":0,"y":0,"w":281,"h":281},
	"sourceSize": {"w":281,"h":281}
}
,{
	"filename": "Symbol 1 instance 10019",
	"frame": {"x":1405,"y":562,"w":281,"h":281},
	"rotated": false,
	"trimmed": false,
	"spriteSourceSize": {"x":0,"y":0,"w":281,"h":281},
	"sourceSize": {"w":281,"h":281}
}
,{
	"filename": "Symbol 1 instance 10020",
	"frame": {"x":1686,"y":562,"w":281,"h":281},
	"rotated": false,
	"trimmed": false,
	"spriteSourceSize": {"x":0,"y":0,"w":281,"h":281},
	"sourceSize": {"w":281,"h":281}
}
,{
	"filename": "Symbol 1 instance 10021",
	"frame": {"x":0,"y":843,"w":281,"h":281},
	"rotated": false,
	"trimmed": false,
	"spriteSourceSize": {"x":0,"y":0,"w":281,"h":281},
	"sourceSize": {"w":281,"h":281}
}
,{
	"filename": "Symbol 1 instance 10022",
	"frame": {"x":281,"y":843,"w":281,"h":281},
	"rotated": false,
	"trimmed": false,
	"spriteSourceSize": {"x":0,"y":0,"w":281,"h":281},
	"sourceSize": {"w":281,"h":281}
}
,{
	"filename": "Symbol 1 instance 10023",
	"frame": {"x":562,"y":843,"w":281,"h":281},
	"rotated": false,
	"trimmed": false,
	"spriteSourceSize": {"x":0,"y":0,"w":281,"h":281},
	"sourceSize": {"w":281,"h":281}
}
,{
	"filename": "Symbol 1 instance 10024",
	"frame": {"x":843,"y":843,"w":281,"h":281},
	"rotated": false,
	"trimmed": false,
	"spriteSourceSize": {"x":0,"y":0,"w":281,"h":281},
	"sourceSize": {"w":281,"h":281}
}
,{
	"filename": "Symbol 1 instance 10025",
	"frame": {"x":1124,"y":843,"w":281,"h":281},
	"rotated": false,
	"trimmed": false,
	"spriteSourceSize": {"x":0,"y":0,"w":281,"h":281},
	"sourceSize": {"w":281,"h":281}
}
,{
	"filename": "Symbol 1 instance 10026",
	"frame": {"x":1405,"y":843,"w":281,"h":281},
	"rotated": false,
	"trimmed": false,
	"spriteSourceSize": {"x":0,"y":0,"w":281,"h":281},
	"sourceSize": {"w":281,"h":281}
}
,{
	"filename": "Symbol 1 instance 10027",
	"frame": {"x":1686,"y":843,"w":281,"h":281},
	"rotated": false,
	"trimmed": false,
	"spriteSourceSize": {"x":0,"y":0,"w":281,"h":281},
	"sourceSize": {"w":281,"h":281}
}
,{
	"filename": "Symbol 1 instance 10028",
	"frame": {"x":0,"y":1124,"w":281,"h":281},
	"rotated": false,
	"trimmed": false,
	"spriteSourceSize": {"x":0,"y":0,"w":281,"h":281},
	"sourceSize": {"w":281,"h":281}
}
,{
	"filename": "Symbol 1 instance 10029",
	"frame": {"x":281,"y":1124,"w":281,"h":281},
	"rotated": false,
	"trimmed": false,
	"spriteSourceSize": {"x":0,"y":0,"w":281,"h":281},
	"sourceSize": {"w":281,"h":281}
}
,{
	"filename": "Symbol 1 instance 10030",
	"frame": {"x":562,"y":1124,"w":281,"h":281},
	"rotated": false,
	"trimmed": false,
	"spriteSourceSize": {"x":0,"y":0,"w":281,"h":281},
	"sourceSize": {"w":281,"h":281}
}
,{
	"filename": "Symbol 1 instance 10031",
	"frame": {"x":843,"y":1124,"w":281,"h":281},
	"rotated": false,
	"trimmed": false,
	"spriteSourceSize": {"x":0,"y":0,"w":281,"h":281},
	"sourceSize": {"w":281,"h":281}
}
,{
	"filename": "Symbol 1 instance 10032",
	"frame": {"x":1124,"y":1124,"w":281,"h":281},
	"rotated": false,
	"trimmed": false,
	"spriteSourceSize": {"x":0,"y":0,"w":281,"h":281},
	"sourceSize": {"w":281,"h":281}
}
,{
	"filename": "Symbol 1 instance 10033",
	"frame": {"x":1405,"y":1124,"w":281,"h":281},
	"rotated": false,
	"trimmed": false,
	"spriteSourceSize": {"x":0,"y":0,"w":281,"h":281},
	"sourceSize": {"w":281,"h":281}
}
,{
	"filename": "Symbol 1 instance 10034",
	"frame": {"x":1686,"y":1124,"w":281,"h":281},
	"rotated": false,
	"trimmed": false,
	"spriteSourceSize": {"x":0,"y":0,"w":281,"h":281},
	"sourceSize": {"w":281,"h":281}
}
,{
	"filename": "Symbol 1 instance 10035",
	"frame": {"x":0,"y":1405,"w":281,"h":281},
	"rotated": false,
	"trimmed": false,
	"spriteSourceSize": {"x":0,"y":0,"w":281,"h":281},
	"sourceSize": {"w":281,"h":281}
}
,{
	"filename": "Symbol 1 instance 10036",
	"frame": {"x":281,"y":1405,"w":281,"h":281},
	"rotated": false,
	"trimmed": false,
	"spriteSourceSize": {"x":0,"y":0,"w":281,"h":281},
	"sourceSize": {"w":281,"h":281}
}
,{
	"filename": "Symbol 1 instance 10037",
	"frame": {"x":562,"y":1405,"w":281,"h":281},
	"rotated": false,
	"trimmed": false,
	"spriteSourceSize": {"x":0,"y":0,"w":281,"h":281},
	"sourceSize": {"w":281,"h":281}
}
,{
	"filename": "Symbol 1 instance 10038",
	"frame": {"x":843,"y":1405,"w":281,"h":281},
	"rotated": false,
	"trimmed": false,
	"spriteSourceSize": {"x":0,"y":0,"w":281,"h":281},
	"sourceSize": {"w":281,"h":281}
}
,{
	"filename": "Symbol 1 instance 10039",
	"frame": {"x":1124,"y":1405,"w":281,"h":281},
	"rotated": false,
	"trimmed": false,
	"spriteSourceSize": {"x":0,"y":0,"w":281,"h":281},
	"sourceSize": {"w":281,"h":281}
}
,{
	"filename": "Symbol 1 instance 10040",
	"frame": {"x":1405,"y":1405,"w":281,"h":281},
	"rotated": false,
	"trimmed": false,
	"spriteSourceSize": {"x":0,"y":0,"w":281,"h":281},
	"sourceSize": {"w":281,"h":281}
}],
"meta": {
	"app": "Adobe Animate",
	"version": "18.0.1.115",
	"image": "ChoiceImages1.png",
	"format": "RGBA8888",
	"size": {"w":2048,"h":2048},
	"scale": "1"
}
}
