﻿{"frames": {

"Symbol 1 copy instance 10000":
{
	"frame": {"x":0,"y":0,"w":183,"h":188},
	"rotated": false,
	"trimmed": false,
	"spriteSourceSize": {"x":0,"y":0,"w":183,"h":188},
	"sourceSize": {"w":183,"h":188}
},
"Symbol 1 copy instance 10001":
{
	"frame": {"x":183,"y":0,"w":183,"h":188},
	"rotated": false,
	"trimmed": false,
	"spriteSourceSize": {"x":0,"y":0,"w":183,"h":188},
	"sourceSize": {"w":183,"h":188}
},
"Symbol 1 copy instance 10002":
{
	"frame": {"x":366,"y":0,"w":183,"h":188},
	"rotated": false,
	"trimmed": false,
	"spriteSourceSize": {"x":0,"y":0,"w":183,"h":188},
	"sourceSize": {"w":183,"h":188}
},
"Symbol 1 copy instance 10003":
{
	"frame": {"x":549,"y":0,"w":183,"h":188},
	"rotated": false,
	"trimmed": false,
	"spriteSourceSize": {"x":0,"y":0,"w":183,"h":188},
	"sourceSize": {"w":183,"h":188}
},
"Symbol 1 copy instance 10004":
{
	"frame": {"x":732,"y":0,"w":183,"h":188},
	"rotated": false,
	"trimmed": false,
	"spriteSourceSize": {"x":0,"y":0,"w":183,"h":188},
	"sourceSize": {"w":183,"h":188}
},
"Symbol 1 copy instance 10005":
{
	"frame": {"x":0,"y":188,"w":183,"h":188},
	"rotated": false,
	"trimmed": false,
	"spriteSourceSize": {"x":0,"y":0,"w":183,"h":188},
	"sourceSize": {"w":183,"h":188}
},
"Symbol 1 copy instance 10006":
{
	"frame": {"x":183,"y":188,"w":183,"h":188},
	"rotated": false,
	"trimmed": false,
	"spriteSourceSize": {"x":0,"y":0,"w":183,"h":188},
	"sourceSize": {"w":183,"h":188}
},
"Symbol 1 copy instance 10007":
{
	"frame": {"x":366,"y":188,"w":183,"h":188},
	"rotated": false,
	"trimmed": false,
	"spriteSourceSize": {"x":0,"y":0,"w":183,"h":188},
	"sourceSize": {"w":183,"h":188}
},
"Symbol 1 copy instance 10008":
{
	"frame": {"x":549,"y":188,"w":183,"h":188},
	"rotated": false,
	"trimmed": false,
	"spriteSourceSize": {"x":0,"y":0,"w":183,"h":188},
	"sourceSize": {"w":183,"h":188}
},
"Symbol 1 copy instance 10009":
{
	"frame": {"x":732,"y":188,"w":183,"h":188},
	"rotated": false,
	"trimmed": false,
	"spriteSourceSize": {"x":0,"y":0,"w":183,"h":188},
	"sourceSize": {"w":183,"h":188}
},
"Symbol 1 copy instance 10010":
{
	"frame": {"x":0,"y":376,"w":183,"h":188},
	"rotated": false,
	"trimmed": false,
	"spriteSourceSize": {"x":0,"y":0,"w":183,"h":188},
	"sourceSize": {"w":183,"h":188}
},
"Symbol 1 copy instance 10011":
{
	"frame": {"x":183,"y":376,"w":183,"h":188},
	"rotated": false,
	"trimmed": false,
	"spriteSourceSize": {"x":0,"y":0,"w":183,"h":188},
	"sourceSize": {"w":183,"h":188}
},
"Symbol 1 copy instance 10012":
{
	"frame": {"x":366,"y":376,"w":183,"h":188},
	"rotated": false,
	"trimmed": false,
	"spriteSourceSize": {"x":0,"y":0,"w":183,"h":188},
	"sourceSize": {"w":183,"h":188}
},
"Symbol 1 copy instance 10013":
{
	"frame": {"x":549,"y":376,"w":183,"h":188},
	"rotated": false,
	"trimmed": false,
	"spriteSourceSize": {"x":0,"y":0,"w":183,"h":188},
	"sourceSize": {"w":183,"h":188}
},
"Symbol 1 copy instance 10014":
{
	"frame": {"x":732,"y":376,"w":183,"h":188},
	"rotated": false,
	"trimmed": false,
	"spriteSourceSize": {"x":0,"y":0,"w":183,"h":188},
	"sourceSize": {"w":183,"h":188}
},
"Symbol 1 copy instance 10015":
{
	"frame": {"x":0,"y":564,"w":183,"h":188},
	"rotated": false,
	"trimmed": false,
	"spriteSourceSize": {"x":0,"y":0,"w":183,"h":188},
	"sourceSize": {"w":183,"h":188}
},
"Symbol 1 copy instance 10016":
{
	"frame": {"x":183,"y":564,"w":183,"h":188},
	"rotated": false,
	"trimmed": false,
	"spriteSourceSize": {"x":0,"y":0,"w":183,"h":188},
	"sourceSize": {"w":183,"h":188}
},
"Symbol 1 copy instance 10017":
{
	"frame": {"x":366,"y":564,"w":183,"h":188},
	"rotated": false,
	"trimmed": false,
	"spriteSourceSize": {"x":0,"y":0,"w":183,"h":188},
	"sourceSize": {"w":183,"h":188}
},
"Symbol 1 copy instance 10018":
{
	"frame": {"x":549,"y":564,"w":183,"h":188},
	"rotated": false,
	"trimmed": false,
	"spriteSourceSize": {"x":0,"y":0,"w":183,"h":188},
	"sourceSize": {"w":183,"h":188}
},
"Symbol 1 copy instance 10019":
{
	"frame": {"x":732,"y":564,"w":183,"h":188},
	"rotated": false,
	"trimmed": false,
	"spriteSourceSize": {"x":0,"y":0,"w":183,"h":188},
	"sourceSize": {"w":183,"h":188}
},
"Symbol 1 copy instance 10020":
{
	"frame": {"x":0,"y":752,"w":183,"h":188},
	"rotated": false,
	"trimmed": false,
	"spriteSourceSize": {"x":0,"y":0,"w":183,"h":188},
	"sourceSize": {"w":183,"h":188}
},
"Symbol 1 copy instance 10021":
{
	"frame": {"x":183,"y":752,"w":183,"h":188},
	"rotated": false,
	"trimmed": false,
	"spriteSourceSize": {"x":0,"y":0,"w":183,"h":188},
	"sourceSize": {"w":183,"h":188}
},
"Symbol 1 copy instance 10022":
{
	"frame": {"x":366,"y":752,"w":183,"h":188},
	"rotated": false,
	"trimmed": false,
	"spriteSourceSize": {"x":0,"y":0,"w":183,"h":188},
	"sourceSize": {"w":183,"h":188}
},
"Symbol 1 copy instance 10023":
{
	"frame": {"x":549,"y":752,"w":183,"h":188},
	"rotated": false,
	"trimmed": false,
	"spriteSourceSize": {"x":0,"y":0,"w":183,"h":188},
	"sourceSize": {"w":183,"h":188}
},
"Symbol 1 copy instance 10024":
{
	"frame": {"x":732,"y":752,"w":183,"h":188},
	"rotated": false,
	"trimmed": false,
	"spriteSourceSize": {"x":0,"y":0,"w":183,"h":188},
	"sourceSize": {"w":183,"h":188}
},
"Symbol 1 copy instance 10025":
{
	"frame": {"x":0,"y":940,"w":183,"h":188},
	"rotated": false,
	"trimmed": false,
	"spriteSourceSize": {"x":0,"y":0,"w":183,"h":188},
	"sourceSize": {"w":183,"h":188}
},
"Symbol 1 copy instance 10026":
{
	"frame": {"x":183,"y":940,"w":183,"h":188},
	"rotated": false,
	"trimmed": false,
	"spriteSourceSize": {"x":0,"y":0,"w":183,"h":188},
	"sourceSize": {"w":183,"h":188}
},
"Symbol 1 copy instance 10027":
{
	"frame": {"x":366,"y":940,"w":183,"h":188},
	"rotated": false,
	"trimmed": false,
	"spriteSourceSize": {"x":0,"y":0,"w":183,"h":188},
	"sourceSize": {"w":183,"h":188}
},
"Symbol 1 copy instance 10028":
{
	"frame": {"x":549,"y":940,"w":183,"h":188},
	"rotated": false,
	"trimmed": false,
	"spriteSourceSize": {"x":0,"y":0,"w":183,"h":188},
	"sourceSize": {"w":183,"h":188}
},
"Symbol 1 copy instance 10029":
{
	"frame": {"x":732,"y":940,"w":183,"h":188},
	"rotated": false,
	"trimmed": false,
	"spriteSourceSize": {"x":0,"y":0,"w":183,"h":188},
	"sourceSize": {"w":183,"h":188}
},
"Symbol 1 copy instance 10030":
{
	"frame": {"x":0,"y":1128,"w":183,"h":188},
	"rotated": false,
	"trimmed": false,
	"spriteSourceSize": {"x":0,"y":0,"w":183,"h":188},
	"sourceSize": {"w":183,"h":188}
},
"Symbol 1 copy instance 10031":
{
	"frame": {"x":183,"y":1128,"w":183,"h":188},
	"rotated": false,
	"trimmed": false,
	"spriteSourceSize": {"x":0,"y":0,"w":183,"h":188},
	"sourceSize": {"w":183,"h":188}
},
"Symbol 1 copy instance 10032":
{
	"frame": {"x":366,"y":1128,"w":183,"h":188},
	"rotated": false,
	"trimmed": false,
	"spriteSourceSize": {"x":0,"y":0,"w":183,"h":188},
	"sourceSize": {"w":183,"h":188}
},
"Symbol 1 copy instance 10033":
{
	"frame": {"x":549,"y":1128,"w":183,"h":188},
	"rotated": false,
	"trimmed": false,
	"spriteSourceSize": {"x":0,"y":0,"w":183,"h":188},
	"sourceSize": {"w":183,"h":188}
},
"Symbol 1 copy instance 10034":
{
	"frame": {"x":732,"y":1128,"w":183,"h":188},
	"rotated": false,
	"trimmed": false,
	"spriteSourceSize": {"x":0,"y":0,"w":183,"h":188},
	"sourceSize": {"w":183,"h":188}
},
"Symbol 1 copy instance 10035":
{
	"frame": {"x":0,"y":1316,"w":183,"h":188},
	"rotated": false,
	"trimmed": false,
	"spriteSourceSize": {"x":0,"y":0,"w":183,"h":188},
	"sourceSize": {"w":183,"h":188}
},
"Symbol 1 copy instance 10036":
{
	"frame": {"x":183,"y":1316,"w":183,"h":188},
	"rotated": false,
	"trimmed": false,
	"spriteSourceSize": {"x":0,"y":0,"w":183,"h":188},
	"sourceSize": {"w":183,"h":188}
},
"Symbol 1 copy instance 10037":
{
	"frame": {"x":366,"y":1316,"w":183,"h":188},
	"rotated": false,
	"trimmed": false,
	"spriteSourceSize": {"x":0,"y":0,"w":183,"h":188},
	"sourceSize": {"w":183,"h":188}
},
"Symbol 1 copy instance 10038":
{
	"frame": {"x":549,"y":1316,"w":183,"h":188},
	"rotated": false,
	"trimmed": false,
	"spriteSourceSize": {"x":0,"y":0,"w":183,"h":188},
	"sourceSize": {"w":183,"h":188}
},
"Symbol 1 copy instance 10039":
{
	"frame": {"x":732,"y":1316,"w":183,"h":188},
	"rotated": false,
	"trimmed": false,
	"spriteSourceSize": {"x":0,"y":0,"w":183,"h":188},
	"sourceSize": {"w":183,"h":188}
},
"Symbol 1 copy instance 10040":
{
	"frame": {"x":0,"y":1504,"w":183,"h":188},
	"rotated": false,
	"trimmed": false,
	"spriteSourceSize": {"x":0,"y":0,"w":183,"h":188},
	"sourceSize": {"w":183,"h":188}
}},
"meta": {
	"app": "Adobe Animate",
	"version": "18.0.0.107",
	"image": "question.png",
	"format": "RGBA8888",
	"size": {"w":1024,"h":2048},
	"scale": "1"
}
}
